CASE STUDY 1 : BIKE SHARING ANALYSES OF HOW CASUAL RIDERS DIFFER FROM MEMBER RIDERS
…
bik_data_new %>% group_by(hours,weekday) %>% count(member_casual) %>% 
  filter(member_casual == 'casual',weekday == 'Wednesday') %>% arrange(n)

## # A tibble: 24 x 4
## # Groups:   hours, weekday [24]
##    hours weekday   member_casual     n
##    <chr> <ord>     <chr>         <int>
##  1 04    Wednesday casual          444
##  2 03    Wednesday casual          466
##  3 02    Wednesday casual          699
##  4 01    Wednesday casual         1113
##  5 05    Wednesday casual         1167
##  6 00    Wednesday casual         2453
##  7 06    Wednesday casual         3128
##  8 23    Wednesday casual         5263
##  9 07    Wednesday casual         6248
## 10 09    Wednesday casual         6574
## # ... with 14 more rows

##The date zone is to find peak hours, True means hours is PM and
False means hours is AM.

bik_data_new$date_zone<-lubridate::pm(bik_data_new$startdate)

bik_data_new %>% group_by(hours,weekday,date_zone) %>% count(member_casual) %>% 
  filter(member_casual == 'casual',weekday == 'Sunday') %>% arrange(desc(n))

## # A tibble: 24 x 5
## # Groups:   hours, weekday, date_zone [24]
##    hours weekday date_zone member_casual     n
##    <chr> <ord>   <lgl>     <chr>         <int>
##  1 15    Sunday  TRUE      casual        36007
##  2 14    Sunday  TRUE      casual        35223
##  3 13    Sunday  TRUE      casual        34712
##  4 16    Sunday  TRUE      casual        33769
##  5 12    Sunday  TRUE      casual        32092
##  6 17    Sunday  TRUE      casual        30328
##  7 11    Sunday  FALSE     casual        27966
##  8 18    Sunday  TRUE      casual        24663
##  9 10    Sunday  FALSE     casual        20876
## 10 19    Sunday  TRUE      casual        19038
## # ... with 14 more rows

bik_data_new %>% group_by(hours,weekday,date_zone) %>% count(member_casual) %>% 
  filter(member_casual == 'casual',weekday == 'Saturday') %>% arrange(desc(n))

## # A tibble: 24 x 5
## # Groups:   hours, weekday, date_zone [24]
##    hours weekday  date_zone member_casual     n
##    <chr> <ord>    <lgl>     <chr>         <int>
##  1 14    Saturday TRUE      casual        39407
##  2 13    Saturday TRUE      casual        39405
##  3 15    Saturday TRUE      casual        38129
##  4 16    Saturday TRUE      casual        36637
##  5 12    Saturday TRUE      casual        36440
##  6 17    Saturday TRUE      casual        34081
##  7 11    Saturday FALSE     casual        30975
##  8 18    Saturday TRUE      casual        30826
##  9 19    Saturday TRUE      casual        24749
## 10 10    Saturday FALSE     casual        23727
## # ... with 14 more rows
…
